[
    {
        "title": "Welcome to App",
        "subtitle": "Its a great application",
        "image": "../images/r.png"
    },
    {
        "title": "Solves your problem",
        "subtitle": "Just tap the button and problem solved",
        "image": "../images/r.png"
    },
    {
        "title": "Saves time for you",
        "subtitle": "Time is valuable for you",
        "image": "../images/r.png"
    },
    {
        "title": "Lets get started",
        "subtitle": "",
        "image": "../images/r.png"
    },
]